num-threads,array-size,mean,std,median,min,max,sum
1,10,12.5,1.5811388300841895,12.0,12,17,125
1,100,150.7,54.80683250187779,125.0,125,298,1507
1,1000,4264.4,1748.7250720961763,3697.0,3397,9194,42644
1,10000,112090.9,79582.64669085982,86901.5,86862,338587,1120909
2,10,58.0,83.28798766262089,31.0,31,295,580
2,100,322.5,8.263036837493694,318.5,315,339,3225
2,1000,4696.6,1706.0448867352688,4181.5,3709,9498,46966
2,10000,120645.2,79562.51276798362,95500.5,95338,347084,1206452
3,10,52.7,18.469494368342144,47.0,45,105,527
3,100,313.1,7.355270219373309,311.0,306,332,3131
3,1000,4649.0,1209.1586606672702,4251.5,4223,8086,46490
3,10000,228026.7,145828.33231200307,177316.0,159068,636556,2280267
4,10,86.5,22.68259244442751,81.0,59,133,865
4,100,707.7,242.48347022701017,704.0,446,969,7077
4,1000,8220.5,3312.4064515092346,7282.0,6312,17459,82205
4,10000,411718.5,190835.01774467682,350958.5,349690,954823,4117185
5,10,86.6,13.549907748763458,82.0,81,125,866
5,100,660.4,10.243697249203205,657.5,651,686,6604
5,1000,10655.6,2952.6766086985476,9722.0,9702,19059,106556
5,10000,517924.9,382464.15026871045,437531.5,266979,1592164,5179249
6,10,165.2,24.566463138008114,169.0,114,208,1652
6,100,1001.4,368.88787817799965,836.0,701,1628,10014
6,1000,11391.7,6950.305637564118,9070.5,8689,31114,113917
6,10000,451834.1,300784.6336328629,379320.0,268986,1294518,4518341
7,10,109.5,28.88002000614881,101.0,96,191,1095
7,100,772.1,49.61059474659734,762.0,696,832,7721
7,1000,11048.4,4481.969289398479,9039.0,8890,23237,110484
7,10000,528274.8,340235.88520443346,421673.0,371944,1490994,5282748
8,10,136.3,21.520274678131376,129.0,126,197,1363
8,100,1027.1,259.4573182625612,962.0,885,1757,10271
8,1000,15141.4,5007.538366192404,12821.0,11462,27680,151414
8,10000,573828.2,356434.47044015763,444299.5,405233,1575183,5738282
9,10,153.6,17.733834579382115,146.0,137,191,1536
9,100,1257.9,344.5768580608847,1146.5,961,2053,12579
9,1000,15660.8,5357.307611519469,14482.5,11788,30320,156608
9,10000,677867.9,385600.0949649635,553848.0,442136,1752845,6778679
10,10,161.9,18.278402556022233,155.0,152,212,1619
10,100,1308.9,443.17978543952364,1166.0,1120,2567,13089
10,1000,17523.2,5361.718563628229,15681.5,11954,30896,175232
10,10000,723403.1,451968.843265268,589692.5,485380,2002417,7234031
11,10,188.4,35.895527421795734,171.0,169,279,1884
11,100,1505.4,465.94091184755746,1298.5,1240,2601,15054
11,1000,19582.3,4526.483355394856,18572.5,15472,31609,195823
11,10000,804363.5,453661.8184150074,662108.0,586979,2084006,8043635
12,10,206.5,39.522848525322104,189.0,187,311,2065
12,100,1628.2,476.202057954394,1501.5,1343,2959,16282
12,1000,25045.1,7367.319480124519,23208.5,20849,45894,250451
12,10000,866226.5,667463.8288024386,638819.5,588913,2759601,8662265
