10,100,1000,10000,metric
1.0,1.0,1.0,1.0,mean-speedup
0.21551724137931033,0.46728682170542635,0.9079759826257291,0.9290953970816908,mean-speedup
0.23719165085388993,0.48131587352283606,0.9172725317272531,0.49156918904672126,mean-speedup
0.14450867052023122,0.21294333757241765,0.5187519007359649,0.2722513076288775,mean-speedup
0.1443418013856813,0.22819503331314353,0.4002027103119486,0.21642307600966856,mean-speedup
0.07566585956416465,0.15048931495905732,0.3743427232107587,0.248079770871654,mean-speedup
0.1141552511415525,0.19518197124724773,0.3859744397378806,0.21218293963671933,mean-speedup
0.0917094644167278,0.1467237854152468,0.2816384218104006,0.19533877909799485,mean-speedup
0.08138020833333334,0.11980284601319657,0.2722977114834491,0.1653580291971341,mean-speedup
0.0772081531809759,0.11513484605393841,0.24335737764791815,0.15494943275747644,mean-speedup
0.06634819532908705,0.10010628404410786,0.21776808648626564,0.1393535385432084,mean-speedup
0.06053268765133172,0.0925561970273922,0.170268835021621,0.12940137481363131,mean-speedup
1.0,1.0,1.0,1.0,mean-efficiency
0.10775862068965517,0.23364341085271317,0.45398799131286455,0.4645476985408454,mean-efficiency
0.07906388361796331,0.160438624507612,0.305757510575751,0.16385639634890709,mean-efficiency
0.036127167630057806,0.05323583439310441,0.12968797518399122,0.06806282690721938,mean-efficiency
0.02886836027713626,0.045639006662628705,0.08004054206238972,0.04328461520193371,mean-efficiency
0.012610976594027441,0.02508155249317622,0.06239045386845978,0.041346628478609,mean-efficiency
0.016307893020221786,0.02788313874960682,0.05513920567684009,0.030311848519531333,mean-efficiency
0.011463683052090974,0.01834047317690585,0.035204802726300076,0.024417347387249357,mean-efficiency
0.00904224537037037,0.01331142733479962,0.03025530127593879,0.018373114355237124,mean-efficiency
0.007720815318097591,0.01151348460539384,0.024335737764791816,0.015494943275747644,mean-efficiency
0.006031654120826096,0.009100571276737078,0.019797098771478696,0.012668503503928036,mean-efficiency
0.005044390637610976,0.0077130164189493505,0.014189069585135083,0.010783447901135943,mean-efficiency
,,,,mean-Karp-Flatt
8.280000000000001,3.2800265428002655,1.202701435137417,1.1526314803431856,mean-Karp-Flatt
5.824,2.6164565361645655,1.1352828064909486,2.5514524372629714,mean-Karp-Flatt
8.893333333333333,5.928113249281133,2.236938373510928,4.564102586977771,mean-Karp-Flatt
8.409999999999998,5.227770404777703,2.87341712784917,5.525724211332053,mean-Karp-Flatt
15.659200000000002,7.77398805573988,3.0056186098865023,4.637153774302821,mean-Karp-Flatt
10.053333333333333,5.810661358106613,2.8559859925585465,5.331733292652065,mean-Karp-Flatt
12.318857142857144,7.646317186463172,3.915030752944645,5.707784230732123,mean-Karp-Flatt
13.699,9.265428002654282,4.0065073632867465,6.678419256157282,mean-Karp-Flatt
14.280000000000001,9.539408685394088,4.4546477816339936,7.059687073417893,mean-Karp-Flatt
16.479200000000002,10.888321167883213,4.951245192758654,7.793592164930428,mean-Karp-Flatt
17.930909090909093,11.69554201604633,6.316071321980712,8.339519816668274,mean-Karp-Flatt
